Summarising your data in R with across() | Arthur Leung
…
Keeping the original columns

Finally, you don’t always want just the results of the across()
function. If you want to keep the original columns, you can use mutate()
instead of summarise().

iris %>%
  group_by(Species) %>%
  mutate(across(.cols = starts_with("Sepal"), # select columns that start with "Sepal".
                   .fns = list(Mean = mean,
                               SD = sd,
                               SE = ~ sd(.)/sqrt(length(.))), # length returns the number of items in the groupings of the column, i.e. per species
                   .names = "{.col}.{.fn}"))

    ## # A tibble: 150 × 11
    ## # Groups:   Species [3]
    ##    Sepal.Length Sepal.…¹ Petal…² Petal…³ Species Sepal…⁴ Sepal…⁵ Sepal…⁶ Sepal…⁷
    ##           <dbl>    <dbl>   <dbl>   <dbl> <fct>     <dbl>   <dbl>   <dbl>   <dbl>
    ##  1          5.1      3.5     1.4     0.2 setosa     5.01   0.352  0.0498    3.43
    ##  2          4.9      3       1.4     0.2 setosa     5.01   0.352  0.0498    3.43
    ##  3          4.7      3.2     1.3     0.2 setosa     5.01   0.352  0.0498    3.43
    ##  4          4.6      3.1     1.5     0.2 setosa     5.01   0.352  0.0498    3.43
    ##  5          5        3.6     1.4     0.2 setosa     5.01   0.352  0.0498    3.43
    ##  6          5.4      3.9     1.7     0.4 setosa     5.01   0.352  0.0498    3.43
    ##  7          4.6      3.4     1.4     0.3 setosa     5.01   0.352  0.0498    3.43
    ##  8          5        3.4     1.5     0.2 setosa     5.01   0.352  0.0498    3.43
    ##  9          4.4      2.9     1.4     0.2 setosa     5.01   0.352  0.0498    3.43
    ## 10          4.9      3.1     1.5     0.1 setosa     5.01   0.352  0.0498    3.43
    ## # … with 140 more rows, 2 more variables: Sepal.Width.SD <dbl>,
    ## #   Sepal.Width.SE <dbl>, and abbreviated variable names ¹​Sepal.Width,
    ## #   ²​Petal.Length, ³​Petal.Width, ⁴​Sepal.Length.Mean, ⁵​Sepal.Length.SD,
    ## #   ⁶​Sepal.Length.SE, ⁷​Sepal.Width.Mean
…
